Integration des données hydrobiologiques
…
La liste des seuils de qualité est produite à partir de l’Arrêté du 27 juillet 2018 disponible sur Legifrance[^footnote]

[^footnote] Arrêté du 27 juillet 2018 modifiant l’arrêté du 25 janvier 2010 relatif aux méthodes et critères d’évaluation de l’état écologique, de l’état chimique et du potentiel écologique des eaux de surface pris en application des articles R. 212-10, R. 212-11 et R. 212-18 du code de l’environnement - Légifrance (legifrance.gouv.fr)

classes_qualite <- tbl(con_postgresql_dev, dbplyr::in_schema("eau_structure","join_parametre_classe"))%>%
  left_join(tbl(con_postgresql_dev, dbplyr::in_schema("eau_structure","classe")), by="classe_id")%>%
  left_join( select(tbl(con_postgresql_dev, dbplyr::in_schema("eau_structure","parametre")),parametre_id,libelle, code), by="parametre_id")%>%
  collect()%>%
  filter(parametre_id %in% parametres$parametre_id,
         valide == 1)

classes_qualite %>%
  select(libelle.y, code.y, parametre_id, libelle_court, code.x, borne_inf_inclue, borne_sup_exclue, source)

## # A tibble: 50 x 8
##    libelle.y           code.y parametre_id libelle_court code.x borne_inf_inclue
##    <chr>               <chr>         <int> <chr>         <chr>             <dbl>
##  1 Indice polluosensi~ 1022            304 Mauvais       5                  0   
##  2 Indice polluosensi~ 1022            304 Médiocre      4                  5   
##  3 Indice polluosensi~ 1022            304 Moyen         3                  9   
##  4 Indice polluosensi~ 1022            304 Bon           2                 13   
##  5 Indice polluosensi~ 1022            304 Très bon      1                 17   
##  6 Indice Biologique ~ 2928           1153 Mauvais       5                  0   
##  7 Indice Biologique ~ 2928           1153 Médiocre      4                  6.68
##  8 Indice Biologique ~ 2928           1153 Moyen         3                  8.38
##  9 Indice Biologique ~ 2928           1153 Bon           2                 10.1 
## 10 Indice Biologique ~ 2928           1153 Très bon      1                 12.0 
## # ... with 40 more rows, and 2 more variables: borne_sup_exclue <dbl>,
## #   source <chr>
…
table_indices 

## # A tibble: 16,006 x 79
##    code_indice libelle_indice code_station_hy~ libelle_station~ uri_station_hyd~
##    <chr>       <chr>          <chr>            <chr>            <lgl>           
##  1 1000        Indice Biolog~ 04187500         AER à CROISTY (~ NA              
##  2 1000        Indice Biolog~ 04187500         AER à CROISTY (~ NA              
##  3 1000        Indice Biolog~ 04187525         ELLE à FAOUET (~ NA              
##  4 1000        Indice Biolog~ 04187525         ELLE à FAOUET (~ NA              
##  5 1000        Indice Biolog~ 04187600         RAU DU MOULIN D~ NA              
##  6 1000        Indice Biolog~ 04187600         RAU DU MOULIN D~ NA              
##  7 1000        Indice Biolog~ 04187701         STER LAER ou IN~ NA              
##  8 1000        Indice Biolog~ 04187710         STER LAER ou IN~ NA              
##  9 1000        Indice Biolog~ 04187710         STER LAER ou IN~ NA              
## 10 1000        Indice Biolog~ 04190550         SCORFF à PONT-S~ NA              
## # ... with 15,996 more rows, and 74 more variables: date_prelevement <date>,
## #   resultat_indice <dbl>, unite_indice <chr>, code_projection <chr>,
## #   code_cours_eau <chr>, libelle_cours_eau <lgl>, uri_cours_eau <lgl>,
## #   code_masse_eau <chr>, libelle_masse_eau <chr>, uri_masse_eau <lgl>,
## #   code_sous_bassin <chr>, libelle_sous_bassin <chr>, code_bassin <chr>,
## #   libelle_bassin <chr>, code_commune <chr>, libelle_commune <chr>,
## #   code_departement <chr>, libelle_departement <chr>, code_region <chr>, ...
…
Classes des indices

Attribution des classes de qualité aux résultats par paramètre (indice biologique)

table_indices_classes <- table_indices %>% 
  left_join(classes_qualite, by = c("parametre_id"), copy = TRUE, suffix=c("",".classe")) %>%
  filter(resultat_indice < borne_sup_exclue & resultat_indice >= borne_inf_inclue)

table_indices_classes

## # A tibble: 15,998 x 96
##    code_indice libelle_indice code_station_hy~ libelle_station~ uri_station_hyd~
##    <chr>       <chr>          <chr>            <chr>            <lgl>           
##  1 1000        Indice Biolog~ 04187500         AER à CROISTY (~ NA              
##  2 1000        Indice Biolog~ 04187500         AER à CROISTY (~ NA              
##  3 1000        Indice Biolog~ 04187525         ELLE à FAOUET (~ NA              
##  4 1000        Indice Biolog~ 04187525         ELLE à FAOUET (~ NA              
##  5 1000        Indice Biolog~ 04187600         RAU DU MOULIN D~ NA              
##  6 1000        Indice Biolog~ 04187600         RAU DU MOULIN D~ NA              
##  7 1000        Indice Biolog~ 04187701         STER LAER ou IN~ NA              
##  8 1000        Indice Biolog~ 04187710         STER LAER ou IN~ NA              
##  9 1000        Indice Biolog~ 04187710         STER LAER ou IN~ NA              
## 10 1000        Indice Biolog~ 04190550         SCORFF à PONT-S~ NA              
## # ... with 15,988 more rows, and 91 more variables: date_prelevement <date>,
## #   resultat_indice <dbl>, unite_indice <chr>, code_projection <chr>,
## #   code_cours_eau <chr>, libelle_cours_eau <lgl>, uri_cours_eau <lgl>,
## #   code_masse_eau <chr>, libelle_masse_eau <chr>, uri_masse_eau <lgl>,
## #   code_sous_bassin <chr>, libelle_sous_bassin <chr>, code_bassin <chr>,
## #   libelle_bassin <chr>, code_commune <chr>, libelle_commune <chr>,
## #   code_departement <chr>, libelle_departement <chr>, code_region <chr>, ...
…
table_indices_classes

## # A tibble: 15,998 x 96
##    code_indice libelle_indice code_station_hy~ libelle_station~ uri_station_hyd~
##    <chr>       <chr>          <chr>            <chr>            <lgl>           
##  1 1000        Indice Biolog~ 04187500         AER à CROISTY (~ NA              
##  2 1000        Indice Biolog~ 04187500         AER à CROISTY (~ NA              
##  3 1000        Indice Biolog~ 04187525         ELLE à FAOUET (~ NA              
##  4 1000        Indice Biolog~ 04187525         ELLE à FAOUET (~ NA              
##  5 1000        Indice Biolog~ 04187600         RAU DU MOULIN D~ NA              
##  6 1000        Indice Biolog~ 04187600         RAU DU MOULIN D~ NA              
##  7 1000        Indice Biolog~ 04187701         STER LAER ou IN~ NA              
##  8 1000        Indice Biolog~ 04187710         STER LAER ou IN~ NA              
##  9 1000        Indice Biolog~ 04187710         STER LAER ou IN~ NA              
## 10 1000        Indice Biolog~ 04190550         SCORFF à PONT-S~ NA              
## # ... with 15,988 more rows, and 91 more variables: date_prelevement <date>,
## #   resultat_indice <dbl>, unite_indice <chr>, code_projection <chr>,
## #   code_cours_eau <chr>, libelle_cours_eau <lgl>, uri_cours_eau <lgl>,
## #   code_masse_eau <chr>, libelle_masse_eau <chr>, uri_masse_eau <lgl>,
## #   code_sous_bassin <chr>, libelle_sous_bassin <chr>, code_bassin <chr>,
## #   libelle_bassin <chr>, code_commune <chr>, libelle_commune <chr>,
## #   code_departement <chr>, libelle_departement <chr>, code_region <chr>, ...
…
## `summarise()` has grouped output by 'code_station_hydrobio', 'longitude_wgs84', 'latitude_wgs84', 'libelle_support', 'code_indice', 'parametre_id', 'libelle', 'symbole'. You can override using the `.groups` argument.

table_indices_classes_annee

## # A tibble: 15,099 x 12
## # Groups:   code_station_hydrobio, longitude_wgs84, latitude_wgs84,
## #   libelle_support, code_indice, parametre_id, libelle, symbole [3,195]
##    code_station_hyd~ longitude_wgs84 latitude_wgs84 libelle_support  code_indice
##    <chr>                       <dbl>          <dbl> <chr>            <chr>      
##  1 03271215                   -0.856           48.6 Diatomées benth~ 1022       
##  2 03271215                   -0.856           48.6 Diatomées benth~ 5856       
##  3 03271260                   -0.873           48.6 Diatomées benth~ 1022       
##  4 03271260                   -0.873           48.6 Diatomées benth~ 5856       
##  5 03271260                   -0.873           48.6 Macroinvertébré~ 5910       
##  6 03271280                   -0.876           48.6 Diatomées benth~ 1022       
##  7 03271280                   -0.876           48.6 Diatomées benth~ 5856       
##  8 03271280                   -0.876           48.6 Macroinvertébré~ 5910       
##  9 03271360                   -0.939           48.6 Diatomées benth~ 1022       
## 10 03271360                   -0.939           48.6 Diatomées benth~ 5856       
## # ... with 15,089 more rows, and 7 more variables: parametre_id <int>,
## #   libelle <chr>, symbole <chr>, Annee <dbl>, classe <int>,
## #   resultat_indice <dbl>, resultat_qualification <int>
…
Calcul d’une classe de qualité biologique globale (maximum des classes des indices annuels)

table_indices_classe_globale_annee <- table_indices_classes_annee %>%
  group_by(code_station_hydrobio, longitude_wgs84, latitude_wgs84, Annee)%>%
  summarise(Resultat = max(classe))%>%
  mutate(Serie = 'Classe - Qualité biologique Globale', 
         libelle_support = 'Qualité biologique Globale',
         symbole = 'X')

## `summarise()` has grouped output by 'code_station_hydrobio', 'longitude_wgs84', 'latitude_wgs84'. You can override using the `.groups` argument.

table_indices_classe_globale_annee

## # A tibble: 5,535 x 8
## # Groups:   code_station_hydrobio, longitude_wgs84, latitude_wgs84 [700]
##    code_station_hydrobio longitude_wgs84 latitude_wgs84 Annee Resultat Serie    
##    <chr>                           <dbl>          <dbl> <dbl>    <int> <chr>    
##  1 03271215                       -0.856           48.6  2017        3 Classe -~
##  2 03271260                       -0.873           48.6  2019        3 Classe -~
##  3 03271280                       -0.876           48.6  2019        3 Classe -~
##  4 03271360                       -0.939           48.6  2014        2 Classe -~
##  5 03271360                       -0.939           48.6  2017        3 Classe -~
##  6 03271385                       -0.913           48.6  2017        2 Classe -~
##  7 03271415                       -0.941           48.6  2003        2 Classe -~
##  8 03271415                       -0.941           48.6  2004        2 Classe -~
##  9 03271415                       -0.941           48.6  2005        2 Classe -~
## 10 03271415                       -0.941           48.6  2006        2 Classe -~
## # ... with 5,525 more rows, and 2 more variables: libelle_support <chr>,
## #   symbole <chr>
…
analyse_bio_esu

## # A tibble: 15,998 x 13
##    site_id  date_id rdd_id prelevement_code milieu_id support_id fraction_id
##      <int>    <int>  <dbl> <chr>                <dbl>      <int>       <dbl>
##  1    1774 20070710      0 0418750020070710         3         22          22
##  2    1774 20070925      0 0418750020070925         3         22          22
##  3    1775 20070806      0 0418752520070806         3         22          22
##  4    1775 20070924      0 0418752520070924         3         22          22
##  5    1776 20070710      0 0418760020070710         3         22          22
##  6    1776 20070924      0 0418760020070924         3         22          22
##  7    1777 20041002      0 0418770120041002         3         22          22
##  8    1778 20070718      0 0418771020070718         3         22          22
##  9    1778 20070925      0 0418771020070925         3         22          22
## 10    1849 19970924      0 0419055019970924         3         22          22
## # ... with 15,988 more rows, and 6 more variables: parametre_id <int>,
## #   resultat <dbl>, remarque_id <int>, limite_quantification <dbl>,
## #   source <chr>, maj <chr>
…
## `summarise()` has grouped output by 'code_station_hydrobio', 'longitude_wgs84', 'latitude_wgs84', 'libelle_support', 'Serie', 'symbole'. You can override using the `.groups` argument.

table_series_indices

## # A tibble: 47,345 x 8
## # Groups:   code_station_hydrobio, longitude_wgs84, latitude_wgs84 [700]
##    code_station_hy~ longitude_wgs84 latitude_wgs84 libelle_support Serie symbole
##    <chr>                      <dbl>          <dbl> <chr>           <chr> <chr>  
##  1 03271215                  -0.856           48.6 Diatomées bent~ Clas~ -      
##  2 03271215                  -0.856           48.6 Diatomées bent~ Indi~ -      
##  3 03271215                  -0.856           48.6 Diatomées bent~ Indi~ -      
##  4 03271215                  -0.856           48.6 Diatomées bent~ Qual~ -      
##  5 03271215                  -0.856           48.6 Diatomées bent~ Qual~ -      
##  6 03271260                  -0.873           48.6 Diatomées bent~ Clas~ -      
##  7 03271260                  -0.873           48.6 Diatomées bent~ Indi~ -      
##  8 03271260                  -0.873           48.6 Diatomées bent~ Indi~ -      
##  9 03271260                  -0.873           48.6 Diatomées bent~ Qual~ -      
## 10 03271260                  -0.873           48.6 Diatomées bent~ Qual~ -      
## # ... with 47,335 more rows, and 2 more variables: Annee <dbl>, Resultat <dbl>

Déclinaison par combinaison SITE / EGA

La table de valorisation décline les résultats pour chaque échelle de territoire

table_series_indices_ega <- table_series_indices%>%
  # table des correspondances sites / UGA
  left_join(correspondance_site_ega, by=c("code_station_hydrobio" = "cdsite"), copy = TRUE)%>%
  left_join(sites_rcs, by="code_station_hydrobio")

table_series_indices_ega

## # A tibble: 224,033 x 18
## # Groups:   code_station_hydrobio, longitude_wgs84, latitude_wgs84 [700]
##    code_station_hy~ longitude_wgs84 latitude_wgs84 libelle_support Serie symbole
##    <chr>                      <dbl>          <dbl> <chr>           <chr> <chr>  
##  1 03271215                  -0.856           48.6 Diatomées bent~ Clas~ -      
##  2 03271215                  -0.856           48.6 Diatomées bent~ Clas~ -      
##  3 03271215                  -0.856           48.6 Diatomées bent~ Indi~ -      
##  4 03271215                  -0.856           48.6 Diatomées bent~ Indi~ -      
##  5 03271215                  -0.856           48.6 Diatomées bent~ Indi~ -      
##  6 03271215                  -0.856           48.6 Diatomées bent~ Indi~ -      
##  7 03271215                  -0.856           48.6 Diatomées bent~ Qual~ -      
##  8 03271215                  -0.856           48.6 Diatomées bent~ Qual~ -      
##  9 03271215                  -0.856           48.6 Diatomées bent~ Qual~ -      
## 10 03271215                  -0.856           48.6 Diatomées bent~ Qual~ -      
## # ... with 224,023 more rows, and 12 more variables: Annee <dbl>,
## #   Resultat <dbl>, site_id <int>, site_geom <chr>, lbsite <chr>, ega_id <int>,
## #   typeega <chr>, lbega <chr>, cdega <chr>, typesite <chr>, inclus_rcs <lgl>,
## #   geometry <POINT [m]>
…
oeb_eau_qualite_biologique_ce

## # A tibble: 224,033 x 15
## # Groups:   Code_entitite_geographique, CoordX_WGS84, CoordY_WGS84 [700]
##    Type_entitite_ge~ Code_entitite_g~ Libelle_entitit~ CoordX_WGS84 CoordY_WGS84
##    <chr>             <chr>            <chr>                   <dbl>        <dbl>
##  1 SITE              03271215         LE RUISSEAU DU ~       -0.856         48.6
##  2 SITE              03271215         LE RUISSEAU DU ~       -0.856         48.6
##  3 SITE              03271215         LE RUISSEAU DU ~       -0.856         48.6
##  4 SITE              03271215         LE RUISSEAU DU ~       -0.856         48.6
##  5 SITE              03271215         LE RUISSEAU DU ~       -0.856         48.6
##  6 SITE              03271215         LE RUISSEAU DU ~       -0.856         48.6
##  7 SITE              03271215         LE RUISSEAU DU ~       -0.856         48.6
##  8 SITE              03271215         LE RUISSEAU DU ~       -0.856         48.6
##  9 SITE              03271215         LE RUISSEAU DU ~       -0.856         48.6
## 10 SITE              03271215         LE RUISSEAU DU ~       -0.856         48.6
## # ... with 224,023 more rows, and 10 more variables: Reseau_RCS <lgl>,
## #   Type_entitite_geographique_associee <chr>,
## #   Code_entitite_geographique_associee <chr>,
## #   Libelle_entitite_geographique_associee <chr>, Periode <chr>, Serie <chr>,
## #   unite <chr>, Resultat <dbl>, Source <chr>, Mise_a_jour <chr>
…
insert_oeb_eau_qualite_biologique_ce <- oeb_eau_qualite_biologique_ce %>% 
  ungroup() %>%
  # Retirer les lignes des résultats déjà existants dans la table
  anti_join(tbl(con_eau_tbi,"oeb_eau_qualite_biologique_ce", by=c("Type_entitite_geographique", "Code_entitite_geographique", "Type_entitite_geographique_associee", "Code_entitite_geographique_associee", "Periode", "Serie")), copy = TRUE)%>%
  # Retirer les stations hydro sans EGA identifiée
  filter(!is.na(Type_entitite_geographique))%>%
  # Retirer les lignes avec une valeur NA
  drop_na()

## Joining, by = c("Type_entitite_geographique", "Code_entitite_geographique", "Libelle_entitite_geographique", "CoordX_WGS84", "CoordY_WGS84", "Reseau_RCS", "Type_entitite_geographique_associee", "Code_entitite_geographique_associee", "Libelle_entitite_geographique_associee", "Periode", "Serie", "unite", "Resultat", "Source", "Mise_a_jour")

insert_oeb_eau_qualite_biologique_ce

## # A tibble: 224,033 x 15
##    Type_entitite_ge~ Code_entitite_g~ Libelle_entitit~ CoordX_WGS84 CoordY_WGS84
##    <chr>             <chr>            <chr>                   <dbl>        <dbl>
##  1 SITE              03271215         LE RUISSEAU DU ~       -0.856         48.6
##  2 SITE              03271215         LE RUISSEAU DU ~       -0.856         48.6
##  3 SITE              03271215         LE RUISSEAU DU ~       -0.856         48.6
##  4 SITE              03271215         LE RUISSEAU DU ~       -0.856         48.6
##  5 SITE              03271215         LE RUISSEAU DU ~       -0.856         48.6
##  6 SITE              03271215         LE RUISSEAU DU ~       -0.856         48.6
##  7 SITE              03271215         LE RUISSEAU DU ~       -0.856         48.6
##  8 SITE              03271215         LE RUISSEAU DU ~       -0.856         48.6
##  9 SITE              03271215         LE RUISSEAU DU ~       -0.856         48.6
## 10 SITE              03271215         LE RUISSEAU DU ~       -0.856         48.6
## # ... with 224,023 more rows, and 10 more variables: Reseau_RCS <lgl>,
## #   Type_entitite_geographique_associee <chr>,
## #   Code_entitite_geographique_associee <chr>,
## #   Libelle_entitite_geographique_associee <chr>, Periode <chr>, Serie <chr>,
## #   unite <chr>, Resultat <dbl>, Source <chr>, Mise_a_jour <chr>
…
